^C:\USERS\TRAVIS\DOCUMENTS\VISUAL STUDIO 2013\PROJECTS\TPG_BRICK_BREAKER\TPG_BRICK_BREAKER\MAIN.CPP
C:\USERS\TRAVIS\DOCUMENTS\VISUAL STUDIO 2013\PROJECTS\TPG_BRICK_BREAKER\TPG_BRICK_BREAKER\DEBUG\VC120.PDB
C:\USERS\TRAVIS\DOCUMENTS\VISUAL STUDIO 2013\PROJECTS\TPG_BRICK_BREAKER\TPG_BRICK_BREAKER\DEBUG\VC120.IDB
C:\USERS\TRAVIS\DOCUMENTS\VISUAL STUDIO 2013\PROJECTS\TPG_BRICK_BREAKER\TPG_BRICK_BREAKER\DEBUG\MAIN.OBJ
